…
``` r
# obteniendo los valores de estadica descriptiva 
summarise(aosi_data, sample_size=n(), mean_aosi_ts_V6=mean(V06.aosi.total_score_1_18), mean_aosi_ts_V12=mean(V12.aosi.total_score_1_18))
```

    ##   sample_size mean_aosi_ts_V6 mean_aosi_ts_V12
    ## 1         587              NA               NA

``` r
#
aosi_data_grouped <- group_by(aosi_data, Gender, GROUP)
aosi_data_grouped
```

    ## # A tibble: 587 x 8
    ## # Groups:   Gender, GROUP [8]
    ##    Identifiers GROUP Study_Site Gender V06.aosi.Candid~ V06.aosi.total_~
    ##          <int> <fct> <fct>      <fct>             <dbl>            <int>
    ##  1           1 HR_A~ PHI        Male                7.1                8
    ##  2           2 HR_A~ PHI        Male                6.1               18
    ##  3           3 HR_A~ PHI        Male                6.6                4
    ##  4           4 HR_A~ PHI        Male               NA                 NA
    ##  5           5 HR_n~ PHI        Male                6.8                6
    ##  6           6 HR_n~ PHI        Male               NA                 NA
    ##  7           7 HR_A~ PHI        Male                6.2               16
    ##  8           8 HR_A~ PHI        Male                6.2               10
    ##  9           9 HR_n~ PHI        Male               NA                 NA
    ## 10          10 HR_A~ PHI        Male               NA                 NA
    ## # ... with 577 more rows, and 2 more variables: V12.aosi.Candidate_Age <dbl>,
    ## #   V12.aosi.total_score_1_18 <int>
…
